{
  "$schema": "../schema.json",
  "id": "new-employees",
  "owners": ["afk@it-minds.dk", "pph@it-minds.dk"],
  "url": "https://new-employees-widget.vercel.app/",
  "sizes": [
    {
      "height": 2,
      "width": 4
    },
    {
      "height": 2,
      "width": 3
    },
    {
      "height": 2,
      "width": 2
    }
  ],
  "attributes": [
    {
      "name": "maxDaysSinceHired",
      "description": "X days for the widget to look forwards and backwards"
    }
  ],
  "description": "Hello, this is very nice widget."
}
