{
  "$schema": "../schema.json",
  "id": "reddit-widget",
  "sizes": [
    { "height": 2, "width": 2 },
    { "height": 3, "width": 2 },
    { "height": 3, "width": 3 }
  ],
  "description": "Reddit widget displays the top widget of a given subreddit",
  "attributes": [
    {
      "name": "subReddit",
      "description": "REQUIRED\nTargeted subreddit the widget should pull from. Beware, you need to include the full name /r/mySubReddit"
    }
  ],
  "owners": ["asc@it-minds.dk", "jon@it-minds.dk"]
}
